%YAML 1.1
%TAG !u! tag:unity3d.com,2011:
--- !u!1045 &1
EditorBuildSettings:
  m_ObjectHideFlags: 0
  serializedVersion: 2
  m_Scenes:
  - enabled: 1
    path: Assets/_Scenes/Start Menu.unity
    guid: 7fb2975dcf29a4142a061d5e32644c94
  - enabled: 1
    path: Assets/_Scenes/Level_01.unity
    guid: f322da983253c7d409e01d0f9688508d
  - enabled: 1
    path: Assets/_Scenes/Level_02.unity
    guid: 32a229f1a60f1214f971badbfc358e2f
  - enabled: 1
    path: Assets/_Scenes/Level_03.unity
    guid: b3b6d20d9fd21f142af89d5d01b74b69
  - enabled: 1
    path: Assets/_Scenes/Win Screen.unity
    guid: 14c4ccf78295b44a4b81771a29ac16ba
  - enabled: 1
    path: Assets/_Scenes/Lose Screen.unity
    guid: 954d1c2cce088e444a375ba9e0b32926
